OCTO> select pastas.id, firstName, lastName, pastaName from names4
OCTO> inner join pastas on pastas.pastaName = names4.favoritePasta
OCTO> order by firstName desc;
9|Zero|Cool|Pappardelle
8|Zero|Lame|Lasagna
5|Zero|Day|Rotini
5|Lord|Nikon|Rotini
9|Joey||Pappardelle
6|Cereal|Killer|Penne
1|Bobby|Buttons|Cavatelli
1|Betty|Buttons|Cavatelli
1|Acid|Burn|Cavatelli
7|Acid|House|Orechiette
OCTO> 
