OCTO> select pastas.id, firstName, lastName, pastaName from names4
OCTO> inner join pastas on pastas.pastaName = names4.favoritePasta
OCTO> where names4.favoritePasta = "Cavatelli"
OCTO> and lastName = "Buttons"
OCTO> and firstName = "Bobby";
1|Bobby|Buttons|Cavatelli
OCTO> 
