OCTO> select pastas.id, firstName, lastName, pastaName from names4
OCTO> inner join pastas on pastas.pastaName = names4.favoritePasta
OCTO> where names4.favoritePasta = "Penne";
6|Cereal|Killer|Penne
OCTO> 
