Usage: octo [OPTION]...
Start the Octo SQL server.

Mandatory arguments for long options are also mandatory for short options.
  -c, --config-file=<filepath>		Use specified configuration file instead of the default.
  -d, --dry-run				Run the parser in read-only mode and performs basic checks without executing any passed SQL statements.
  -f, --input-file=<filepath>		Read commands from specified file instead of opening interactive prompt.
  -h, --help				Display this help message and exit.
  -v, --verbose=<number>		Specify amount of information to output when running commands by specifying a numeric level from 0-5 or adding additional 'v' characters.
  -r, --version				Display version information and exit.
  -r, --release				Display release information and exit.
