
-- TJOC04 : OCTO305 RIGHT JOIN of subquery containing UNION operator

select * from names n1
right join (
        select * from names where id = 1
        UNION
        select * from names where id = 2
) n2
on n1.id = n2.id;

1|Acid|Burn|1|Acid|Burn
2|Cereal|Killer|2|Cereal|Killer

