
-- TJOC03 : OCTO305 LEFT JOIN of subquery containing UNION operator

select * from names n1
left join (
        select * from names where id = 1
        UNION
        select * from names where id = 2
) n2
on n1.id = n2.id;

0|Zero|Cool|||
1|Acid|Burn|1|Acid|Burn
2|Cereal|Killer|2|Cereal|Killer
3|Lord|Nikon|||
4|Joey||||
5|Zero|Cool|||

