
-- TOB05 : OCTO334 : ORDER BY on a column with empty string values does not work correctly

SELECT lastname,firstname FROM names ORDER BY lastname;
SELECT lastname,firstname FROM names ORDER BY lastname DESC;
|Joey
Burn|Acid
Cool|Zero
Cool|Zero
Killer|Cereal
Nikon|Lord
Nikon|Lord
Killer|Cereal
Cool|Zero
Cool|Zero
Burn|Acid
|Joey

