
SELECT t.typname,t.oid
FROM pg_catalog.pg_type t
  JOIN pg_catalog.pg_namespace n
  ON (t.typnamespace = n.oid)
WHERE n.nspname  != 'pg_toast'
  AND (t.typrelid = 0 OR
    (SELECT c.relkind = 'c' FROM pg_catalog.pg_class c WHERE c.oid = t.typrelid));

[ INFO] PATH:LINENUM DATE TIME : Parsing done for SQL command [SELECT t.typname,t.oid
FROM pg_catalog.pg_type t
  JOIN pg_catalog.pg_namespace n
  ON (t.typnamespace = n.oid)
WHERE n.nspname  != 'pg_toast'
  AND (t.typrelid = 0 OR
    (SELECT c.relkind = 'c' FROM pg_catalog.pg_class c WHERE c.oid = t.typrelid));]
[ INFO] PATH:LINENUM DATE TIME : Generating SQL for CURSOR_NUM
[ INFO] PATH:LINENUM DATE TIME : Generating M file [./_ydboctoP*.m] (to execute SQL query)
[DEBUG] PATH:LINENUM DATE TIME : LOGICAL_PLAN BEFORE optimize_logical_plan() follows
LP_INSERT: 
  LP_PROJECT: 
    LP_COLUMN_LIST: 
      LP_WHERE: 
        LP_COLUMN_ALIAS: T(1).TYPNAME
        LP_COLUMN_LIST_ALIAS: 
        - type: STRING_LITERAL
        - alias: TYPNAME
      LP_COLUMN_LIST: 
        LP_WHERE: 
          LP_COLUMN_ALIAS: T(1).OID
          LP_COLUMN_LIST_ALIAS: 
          - type: INTEGER_LITERAL
          - alias: OID
    LP_SELECT: 
      LP_TABLE_JOIN: 
        LP_TABLE: T
        LP_TABLE_JOIN: INNER_JOIN: 
          LP_TABLE: N
      LP_CRITERIA: 
        LP_KEYS: 
        LP_SELECT_OPTIONS: 
          LP_WHERE: 
            LP_BOOLEAN_AND: 
              LP_BOOLEAN_EQUALS: 
                LP_COLUMN_ALIAS: T(1).TYPNAMESPACE
                LP_COLUMN_ALIAS: N(2).OID
              LP_BOOLEAN_AND: 
                LP_BOOLEAN_NOT_EQUALS: 
                  LP_COLUMN_ALIAS: N(2).NSPNAME
                  LP_VALUE: 'pg_toast'
                LP_BOOLEAN_OR: 
                  LP_BOOLEAN_EQUALS: 
                    LP_COLUMN_ALIAS: T(1).TYPRELID
                    LP_VALUE: '0'
                  LP_INSERT: 
                    LP_PROJECT: 
                      LP_COLUMN_LIST: 
                        LP_WHERE: 
                          LP_BOOLEAN_EQUALS: 
                            LP_COLUMN_ALIAS: C(3).RELKIND
                            LP_VALUE: 'c'
                          LP_COLUMN_LIST_ALIAS: 
                          - type: BOOLEAN_VALUE
                          - alias: RELKIND
                      LP_SELECT: 
                        LP_TABLE_JOIN: 
                          LP_TABLE: C
                        LP_CRITERIA: 
                          LP_KEYS: 
                            LP_KEY: 
                            - table_name: PG_CATALOG.PG_CLASS
                            - column_name: OID
                            - unique_id: 3
                            - method: LP_KEY_FIX
                            - xref_key: false
                            - uses_xref_key: false
                            - value:
                                LP_COLUMN_ALIAS: T(1).TYPRELID
                          LP_SELECT_OPTIONS: 
                            LP_WHERE: 
                              LP_BOOLEAN_EQUALS: 
                                LP_COLUMN_ALIAS: C(3).OID
                                LP_COLUMN_ALIAS: T(1).TYPRELID
                            LP_SELECT_MORE_OPTIONS: 
                              LP_KEYWORDS: 
                    LP_OUTPUT: 
                      LP_KEY: 
                      - table_name:  
                      - column_name:  
                      - unique_id: 6
                      - method: LP_KEY_ADVANCE
                      - xref_key: false
                      - uses_xref_key: false
          LP_SELECT_MORE_OPTIONS: 
            LP_KEYWORDS: 
  LP_OUTPUT: 
    LP_KEY: 
    - table_name:  
    - column_name:  
    - unique_id: 7
    - method: LP_KEY_ADVANCE
    - xref_key: false
    - uses_xref_key: false

[DEBUG] PATH:LINENUM DATE TIME : LOGICAL_PLAN AFTER optimize_logical_plan() follows
LP_SET_OPERATION: 
  LP_SET_OPTION: 
    LP_SET_DNF: 
  LP_PLANS: 
    LP_INSERT: 
      LP_PROJECT: 
        LP_COLUMN_LIST: 
          LP_WHERE: 
            LP_COLUMN_ALIAS: T(1).TYPNAME
            LP_COLUMN_LIST_ALIAS: 
            - type: STRING_LITERAL
            - alias: TYPNAME
          LP_COLUMN_LIST: 
            LP_WHERE: 
              LP_COLUMN_ALIAS: T(1).OID
              LP_COLUMN_LIST_ALIAS: 
              - type: INTEGER_LITERAL
              - alias: OID
        LP_SELECT: 
          LP_TABLE_JOIN: 
            LP_INSERT: 
              LP_PROJECT: 
                LP_COLUMN_LIST: 
                  LP_WHERE: 
                    LP_COLUMN_ALIAS: PG_CATALOG.PG_TYPE(8).TYPRELID
                  LP_COLUMN_LIST: 
                    LP_WHERE: 
                      LP_COLUMN_ALIAS: PG_CATALOG.PG_TYPE(8).TYPNAME
                LP_SELECT: 
                  LP_TABLE_JOIN: 
                    LP_TABLE: PG_CATALOG.PG_TYPE
                  LP_CRITERIA: 
                    LP_KEYS: 
                      LP_KEY: 
                      - table_name: PG_CATALOG.PG_TYPE
                      - column_name: TYPNAME
                      - unique_id: 8
                      - method: LP_KEY_ADVANCE
                      - xref_key: false
                      - uses_xref_key: false
                    LP_SELECT_OPTIONS: 
                      LP_WHERE: 
                      LP_SELECT_MORE_OPTIONS: 
                        LP_KEYWORDS:  XREF_INDEX;
              LP_OUTPUT: 
                LP_KEY: 
                - table_name: PG_CATALOG.PG_TYPE
                - column_name: TYPRELID
                - unique_id: 1
                - method: LP_INVALID_ACTION
                - xref_key: true
                - uses_xref_key: false
            LP_TABLE_JOIN: INNER_JOIN: 
              LP_TABLE: N
          LP_CRITERIA: 
            LP_KEYS: 
              LP_KEY: 
              - table_name: PG_CATALOG.PG_TYPE
              - column_name: TYPRELID
              - unique_id: 1
              - method: LP_KEY_FIX
              - xref_key: true
              - uses_xref_key: false
              - value:
                  LP_VALUE: '0'
              LP_KEYS: 
                LP_KEY: 
                - table_name: PG_CATALOG.PG_TYPE
                - column_name: TYPNAME
                - unique_id: 1
                - method: LP_KEY_ADVANCE
                - xref_key: false
                - uses_xref_key: true
                LP_KEYS: 
                  LP_KEY: 
                  - table_name: PG_CATALOG.PG_NAMESPACE
                  - column_name: OID
                  - unique_id: 2
                  - method: LP_KEY_FIX
                  - xref_key: false
                  - uses_xref_key: false
                  - value:
                      LP_COLUMN_ALIAS: T(1).TYPNAMESPACE
            LP_SELECT_OPTIONS: 
              LP_WHERE: 
                LP_BOOLEAN_NOT_EQUALS: 
                  LP_COLUMN_ALIAS: N(2).NSPNAME
                  LP_VALUE: 'pg_toast'
              LP_SELECT_MORE_OPTIONS: 
                LP_KEYWORDS:  BOOLEAN_EXPANSION;
      LP_OUTPUT: 
        LP_KEY: 
        - table_name:  
        - column_name:  
        - unique_id: 7
        - method: LP_KEY_ADVANCE
        - xref_key: false
        - uses_xref_key: false
    LP_INSERT: 
      LP_PROJECT: 
        LP_COLUMN_LIST: 
          LP_WHERE: 
            LP_COLUMN_ALIAS: T(1).TYPNAME
            LP_COLUMN_LIST_ALIAS: 
            - type: STRING_LITERAL
            - alias: TYPNAME
          LP_COLUMN_LIST: 
            LP_WHERE: 
              LP_COLUMN_ALIAS: T(1).OID
              LP_COLUMN_LIST_ALIAS: 
              - type: INTEGER_LITERAL
              - alias: OID
        LP_SELECT: 
          LP_TABLE_JOIN: 
            LP_TABLE: T
            LP_TABLE_JOIN: INNER_JOIN: 
              LP_TABLE: N
          LP_CRITERIA: 
            LP_KEYS: 
              LP_KEY: 
              - table_name: PG_CATALOG.PG_TYPE
              - column_name: TYPNAME
              - unique_id: 1
              - method: LP_KEY_ADVANCE
              - xref_key: false
              - uses_xref_key: false
              LP_KEYS: 
                LP_KEY: 
                - table_name: PG_CATALOG.PG_NAMESPACE
                - column_name: OID
                - unique_id: 2
                - method: LP_KEY_FIX
                - xref_key: false
                - uses_xref_key: false
                - value:
                    LP_COLUMN_ALIAS: T(1).TYPNAMESPACE
            LP_SELECT_OPTIONS: 
              LP_WHERE: 
                LP_BOOLEAN_AND: 
                  LP_BOOLEAN_NOT_EQUALS: 
                    LP_COLUMN_ALIAS: N(2).NSPNAME
                    LP_VALUE: 'pg_toast'
                  LP_INSERT: 
                    LP_PROJECT: 
                      LP_COLUMN_LIST: 
                        LP_WHERE: 
                          LP_BOOLEAN_EQUALS: 
                            LP_COLUMN_ALIAS: C(3).RELKIND
                            LP_VALUE: 'c'
                          LP_COLUMN_LIST_ALIAS: 
                          - type: BOOLEAN_VALUE
                          - alias: RELKIND
                      LP_SELECT: 
                        LP_TABLE_JOIN: 
                          LP_TABLE: C
                        LP_CRITERIA: 
                          LP_KEYS: 
                            LP_KEY: 
                            - table_name: PG_CATALOG.PG_CLASS
                            - column_name: OID
                            - unique_id: 3
                            - method: LP_KEY_FIX
                            - xref_key: false
                            - uses_xref_key: false
                            - value:
                                LP_COLUMN_ALIAS: T(1).TYPRELID
                          LP_SELECT_OPTIONS: 
                            LP_WHERE: 
                              LP_BOOLEAN_EQUALS: 
                                LP_COLUMN_ALIAS: C(3).OID
                                LP_COLUMN_ALIAS: T(1).TYPRELID
                            LP_SELECT_MORE_OPTIONS: 
                              LP_KEYWORDS: 
                    LP_OUTPUT: 
                      LP_KEY: 
                      - table_name:  
                      - column_name:  
                      - unique_id: 6
                      - method: LP_KEY_ADVANCE
                      - xref_key: false
                      - uses_xref_key: false
              LP_SELECT_MORE_OPTIONS: 
                LP_KEYWORDS:  BOOLEAN_EXPANSION;
      LP_OUTPUT: 
        LP_KEY: 
        - table_name:  
        - column_name:  
        - unique_id: 7
        - method: LP_KEY_ADVANCE
        - xref_key: false
        - uses_xref_key: false

[ INFO] PATH:LINENUM DATE TIME : Generating helper cross reference M file [./_ydboctoX*.m] for table [PG_CATALOG.PG_TYPE] and column [TYPRELID]
[ INFO] PATH:LINENUM DATE TIME : print_temporary_table()
bool|16
int4|23
name|19
numeric|1043
varchar|1700
[ INFO] PATH:LINENUM DATE TIME : Parsing done for SQL command []

