
 SELECT NULL          AS TABLE_CAT,
       n.nspname     AS TABLE_SCHEM,
       c.relname     AS TABLE_NAME,
       CASE n.nspname ~ '^pg_'
             OR n.nspname = 'information_schema'
         WHEN true THEN
           CASE
             WHEN n.nspname = 'pg_catalog'
                   OR n.nspname = 'information_schema' THEN
               CASE c.relkind
                 WHEN 'r' THEN 'SYSTEM TABLE'
                 WHEN 'v' THEN 'SYSTEM VIEW'
                 WHEN 'i' THEN 'SYSTEM INDEX'
                 ELSE NULL
               end
             WHEN n.nspname = 'pg_toast' THEN
               CASE c.relkind
                 WHEN 'r' THEN 'SYSTEM TOAST TABLE'
                 WHEN 'i' THEN 'SYSTEM TOAST INDEX'
                 ELSE NULL
               end
             ELSE
               CASE c.relkind
                 WHEN 'r' THEN 'TEMPORARY TABLE'
                 WHEN 'p' THEN 'TEMPORARY TABLE'
                 WHEN 'i' THEN 'TEMPORARY INDEX'
                 WHEN 'S' THEN 'TEMPORARY SEQUENCE'
                 WHEN 'v' THEN 'TEMPORARY VIEW'
                 ELSE NULL
               end
           end
         WHEN false THEN
           CASE c.relkind
             WHEN 'r' THEN 'TABLE'
             WHEN 'p' THEN 'TABLE'
             WHEN 'i' THEN 'INDEX'
             WHEN 'S' THEN 'SEQUENCE'
             WHEN 'v' THEN 'VIEW'
             WHEN 'c' THEN 'TYPE'
             WHEN 'f' THEN 'FOREIGN TABLE'
             WHEN 'm' THEN 'MATERIALIZED VIEW'
             ELSE NULL
           end
         ELSE NULL
       end           AS TABLE_TYPE,
       d.description AS REMARKS,
       ''            AS TYPE_CAT,
       ''            AS TYPE_SCHEM,
       ''            AS TYPE_NAME,
       ''            AS SELF_REFERENCING_COL_NAME,
       ''            AS REF_GENERATION
FROM   pg_catalog.pg_namespace n,
       pg_catalog.pg_class c
       LEFT JOIN pg_catalog.pg_description d
              ON ( c.oid = d.objoid
                   AND d.objsubid = 0 )
       LEFT JOIN pg_catalog.pg_class dc
              ON ( d.classoid = dc.oid
                   AND dc.relname = 'pg_class' )
       LEFT JOIN pg_catalog.pg_namespace dn
              ON ( dn.oid = dc.relnamespace
                   AND dn.nspname = 'pg_catalog' )
WHERE  c.relnamespace = n.oid
       AND c.relname LIKE '%'
       AND ( false
              OR ( c.relkind IN ( 'r', 'p' )
                   AND n.nspname !~ '^pg_'
                   AND n.nspname <> 'information_schema' )
              OR ( c.relkind = 'r'
                   AND ( n.nspname = 'pg_catalog'
                          OR n.nspname = 'information_schema' ) )
              OR ( c.relkind = 'v'
                   AND n.nspname <> 'pg_catalog'
                   AND n.nspname <> 'information_schema' ) )
ORDER  BY table_type,
          table_schem,
          table_name

[ INFO] PATH:LINENUM DATE TIME : Parsing done for SQL command [SELECT NULL          AS TABLE_CAT,
       n.nspname     AS TABLE_SCHEM,
       c.relname     AS TABLE_NAME,
       CASE n.nspname ~ '^pg_'
             OR n.nspname = 'information_schema'
         WHEN true THEN
           CASE
             WHEN n.nspname = 'pg_catalog'
                   OR n.nspname = 'information_schema' THEN
               CASE c.relkind
                 WHEN 'r' THEN 'SYSTEM TABLE'
                 WHEN 'v' THEN 'SYSTEM VIEW'
                 WHEN 'i' THEN 'SYSTEM INDEX'
                 ELSE NULL
               end
             WHEN n.nspname = 'pg_toast' THEN
               CASE c.relkind
                 WHEN 'r' THEN 'SYSTEM TOAST TABLE'
                 WHEN 'i' THEN 'SYSTEM TOAST INDEX'
                 ELSE NULL
               end
             ELSE
               CASE c.relkind
                 WHEN 'r' THEN 'TEMPORARY TABLE'
                 WHEN 'p' THEN 'TEMPORARY TABLE'
                 WHEN 'i' THEN 'TEMPORARY INDEX'
                 WHEN 'S' THEN 'TEMPORARY SEQUENCE'
                 WHEN 'v' THEN 'TEMPORARY VIEW'
                 ELSE NULL
               end
           end
         WHEN false THEN
           CASE c.relkind
             WHEN 'r' THEN 'TABLE'
             WHEN 'p' THEN 'TABLE'
             WHEN 'i' THEN 'INDEX'
             WHEN 'S' THEN 'SEQUENCE'
             WHEN 'v' THEN 'VIEW'
             WHEN 'c' THEN 'TYPE'
             WHEN 'f' THEN 'FOREIGN TABLE'
             WHEN 'm' THEN 'MATERIALIZED VIEW'
             ELSE NULL
           end
         ELSE NULL
       end           AS TABLE_TYPE,
       d.description AS REMARKS,
       ''            AS TYPE_CAT,
       ''            AS TYPE_SCHEM,
       ''            AS TYPE_NAME,
       ''            AS SELF_REFERENCING_COL_NAME,
       ''            AS REF_GENERATION
FROM   pg_catalog.pg_namespace n,
       pg_catalog.pg_class c
       LEFT JOIN pg_catalog.pg_description d
              ON ( c.oid = d.objoid
                   AND d.objsubid = 0 )
       LEFT JOIN pg_catalog.pg_class dc
              ON ( d.classoid = dc.oid
                   AND dc.relname = 'pg_class' )
       LEFT JOIN pg_catalog.pg_namespace dn
              ON ( dn.oid = dc.relnamespace
                   AND dn.nspname = 'pg_catalog' )
WHERE  c.relnamespace = n.oid
       AND c.relname LIKE '%'
       AND ( false
              OR ( c.relkind IN ( 'r', 'p' )
                   AND n.nspname !~ '^pg_'
                   AND n.nspname <> 'information_schema' )
              OR ( c.relkind = 'r'
                   AND ( n.nspname = 'pg_catalog'
                          OR n.nspname = 'information_schema' ) )
              OR ( c.relkind = 'v'
                   AND n.nspname <> 'pg_catalog'
                   AND n.nspname <> 'information_schema' ) )
ORDER  BY table_type,
          table_schem,
          table_name
]
[ INFO] PATH:LINENUM DATE TIME : Generating SQL for CURSOR_NUM
[ INFO] PATH:LINENUM DATE TIME : Generating M file [./_ydboctoP*.m] (to execute SQL query)
[ INFO] PATH:LINENUM DATE TIME : Generating helper cross reference M file [./_ydboctoX*.m] for table [PG_CATALOG.PG_DESCRIPTION] and column [OBJOID]
[ INFO] PATH:LINENUM DATE TIME : print_temporary_table()

|public|INFORMATION_SCHEMA.TABLES|TABLE||||||
|public|NAMES|TABLE||||||
|public|NAMESWITHAGES|TABLE||||||
|public|OCTOONEROWTABLE|TABLE||||||
|public|PG_CATALOG.PG_ATTRDEF|TABLE||||||
|public|PG_CATALOG.PG_ATTRIBUTE|TABLE||||||
|public|PG_CATALOG.PG_CLASS|TABLE||||||
|public|PG_CATALOG.PG_DESCRIPTION|TABLE||||||
|public|PG_CATALOG.PG_NAMESPACE|TABLE||||||
|public|PG_CATALOG.PG_PROC|TABLE||||||
|public|PG_CATALOG.PG_TYPE|TABLE||||||
|public|PG_TYPE|TABLE||||||
|public|USERS|TABLE||||||
