OCTO> SELECT * FROM namesWithAges AS t1
OCTO> CROSS JOIN namesWithAges AS t2
OCTO> WHERE t1.id = t2.age;
OCTO> 
;; This is a generated file; do not modify. Generated M code corresponds to below SQL query
;; ---------------------------------------------------------
;  SELECT * FROM namesWithAges AS t1
;  CROSS JOIN namesWithAges AS t2
;  WHERE t1.id = t2.age;
;; ---------------------------------------------------------

octoPlan0(cursorId)
    DO octoPlan1(cursorId)
    QUIT

octoPlan1(cursorId)
    DO:'$DATA(^%ydboctoocto("xref_status","NAMESWITHAGES","AGE")) ^%ydboctoXfmDvuo7xJZ0ji6igiLkrH6(cursorId)
    NEW %ydboctoz KILL %ydboctocursor(cursorId,"keys",4,"","")
    SET %ydboctocursor(cursorId,"keys",1,"NAMESWITHAGES","ID")=""
    FOR  SET %ydboctocursor(cursorId,"keys",1,"NAMESWITHAGES","ID")=$ORDER(^names(%ydboctocursor(cursorId,"keys",1,"NAMESWITHAGES","ID"))) QUIT:(%ydboctocursor(cursorId,"keys",1,"NAMESWITHAGES","ID")="")  DO
    . SET %ydboctocursor(cursorId,"keys",2,"NAMESWITHAGES","AGE")=%ydboctocursor(cursorId,"keys",1,"NAMESWITHAGES","ID") IF ($DATA(^%ydboctoxref("NAMESWITHAGES","AGE",%ydboctocursor(cursorId,"keys",2,"NAMESWITHAGES","AGE")))'=0) DO
    . . SET %ydboctocursor(cursorId,"keys",2,"NAMESWITHAGES","ID")=""
    . . FOR  SET %ydboctocursor(cursorId,"keys",2,"NAMESWITHAGES","ID")=$ORDER(^%ydboctoxref("NAMESWITHAGES","AGE",%ydboctocursor(cursorId,"keys",2,"NAMESWITHAGES","AGE"),%ydboctocursor(cursorId,"keys",2,"NAMESWITHAGES","ID"))) QUIT:(%ydboctocursor(cursorId,"keys",2,"NAMESWITHAGES","ID")="")  DO
    . . . NEW %ydboctobool SET %ydboctobool=1
    . . . IF %ydboctobool DO
    . . . . SET:1&$INCREMENT(%ydboctocursor(cursorId,"keys",4,"","")) %ydboctoz=42
    . . . . SET %ydboctocursor(cursorId,"keys",4,"","",%ydboctocursor(cursorId,"keys",4,"",""))=%ydboctocursor(cursorId,"keys",1,"NAMESWITHAGES","ID")_"|"_$PIECE($GET(^names(%ydboctocursor(cursorId,"keys",1,"NAMESWITHAGES","ID"))),"|",2)_"|"_$PIECE($GET(^names(%ydboctocursor(cursorId,"keys",1,"NAMESWITHAGES","ID"))),"|",3)_"|"_$PIECE($GET(^names(%ydboctocursor(cursorId,"keys",1,"NAMESWITHAGES","ID"))),"|",4)_"|"_$ZDATE($HOROLOG,"YEAR-MM-DD 24:60:SS")_"|"_%ydboctocursor(cursorId,"keys",2,"NAMESWITHAGES","ID")_"|"_$PIECE($GET(^names(%ydboctocursor(cursorId,"keys",2,"NAMESWITHAGES","ID"))),"|",2)_"|"_$PIECE($GET(^names(%ydboctocursor(cursorId,"keys",2,"NAMESWITHAGES","ID"))),"|",3)_"|"_%ydboctocursor(cursorId,"keys",2,"NAMESWITHAGES","AGE")_"|"_$ZDATE($HOROLOG,"YEAR-MM-DD 24:60:SS")
    QUIT
