OCTO> SELECT * FROM namesWithAges AS t1
OCTO> CROSS JOIN namesWithAges AS t2
OCTO> WHERE t1.age = t2.id;
OCTO> 
;; This is a generated file; do not modify. Generated M code corresponds to below SQL query
;; ---------------------------------------------------------
;  SELECT * FROM namesWithAges AS t1
;  CROSS JOIN namesWithAges AS t2
;  WHERE t1.age = t2.id;
;; ---------------------------------------------------------

octoPlan0(cursorId)
    DO octoPlan1(cursorId)
    QUIT

octoPlan1(cursorId)
    NEW %ydboctoz KILL %ydboctocursor(cursorId,"keys",4,"","")
    SET %ydboctocursor(cursorId,"keys",1,"NAMESWITHAGES","ID")=""
    FOR  SET %ydboctocursor(cursorId,"keys",1,"NAMESWITHAGES","ID")=$ORDER(^names(%ydboctocursor(cursorId,"keys",1,"NAMESWITHAGES","ID"))) QUIT:(%ydboctocursor(cursorId,"keys",1,"NAMESWITHAGES","ID")="")  DO
    . SET %ydboctocursor(cursorId,"keys",2,"NAMESWITHAGES","ID")=$PIECE($GET(^names(%ydboctocursor(cursorId,"keys",1,"NAMESWITHAGES","ID"))),"|",4) IF ($DATA(^names(%ydboctocursor(cursorId,"keys",2,"NAMESWITHAGES","ID")))'=0) DO
    . . NEW %ydboctobool SET %ydboctobool=1
    . . IF %ydboctobool DO
    . . . SET:1&$INCREMENT(%ydboctocursor(cursorId,"keys",4,"","")) %ydboctoz=42
    . . . SET %ydboctocursor(cursorId,"keys",4,"","",%ydboctocursor(cursorId,"keys",4,"",""))=%ydboctocursor(cursorId,"keys",1,"NAMESWITHAGES","ID")_"|"_$PIECE($GET(^names(%ydboctocursor(cursorId,"keys",1,"NAMESWITHAGES","ID"))),"|",2)_"|"_$PIECE($GET(^names(%ydboctocursor(cursorId,"keys",1,"NAMESWITHAGES","ID"))),"|",3)_"|"_$PIECE($GET(^names(%ydboctocursor(cursorId,"keys",1,"NAMESWITHAGES","ID"))),"|",4)_"|"_$ZDATE($HOROLOG,"YEAR-MM-DD 24:60:SS")_"|"_%ydboctocursor(cursorId,"keys",2,"NAMESWITHAGES","ID")_"|"_$PIECE($GET(^names(%ydboctocursor(cursorId,"keys",2,"NAMESWITHAGES","ID"))),"|",2)_"|"_$PIECE($GET(^names(%ydboctocursor(cursorId,"keys",2,"NAMESWITHAGES","ID"))),"|",3)_"|"_$PIECE($GET(^names(%ydboctocursor(cursorId,"keys",2,"NAMESWITHAGES","ID"))),"|",4)_"|"_$ZDATE($HOROLOG,"YEAR-MM-DD 24:60:SS")
    QUIT
