OCTO> select * from names where firstname like "%%abc%%";
OCTO> select * from names where firstname not like "%%abc%%";
0|Zero|Cool
1|Acid|Burn
2|Cereal|Killer
3|Lord|Nikon
4|Joey|
5|Zero|Cool
OCTO> 
;; This is a generated file; do not modify. Generated M code corresponds to below SQL query
;; ---------------------------------------------------------
;  select * from names where firstname like "%%abc%%";
;; ---------------------------------------------------------

octoPlan0(cursorId)
    DO octoPlan1(cursorId)
    QUIT

octoPlan1(cursorId)
    NEW %ydboctoz KILL %ydboctocursor(cursorId,"keys",3,"","")
    SET %ydboctocursor(cursorId,"keys",1,"NAMES","ID")=""
    FOR  SET %ydboctocursor(cursorId,"keys",1,"NAMES","ID")=$ORDER(^names(%ydboctocursor(cursorId,"keys",1,"NAMES","ID"))) QUIT:(%ydboctocursor(cursorId,"keys",1,"NAMES","ID")="")  DO
    . NEW %ydboctobool SET %ydboctobool=1
    . SET %ydboctobool=$$regmatch^%ydbposix($PIECE($GET(^names(%ydboctocursor(cursorId,"keys",1,"NAMES","ID"))),"|",2),$GET(%ydboctocursor(cursorId,"parameters",1)))
    . IF %ydboctobool DO
    . . SET:1&$INCREMENT(%ydboctocursor(cursorId,"keys",3,"","")) %ydboctoz=42
    . . SET %ydboctocursor(cursorId,"keys",3,"","",%ydboctocursor(cursorId,"keys",3,"",""))=%ydboctocursor(cursorId,"keys",1,"NAMES","ID")_"|"_$PIECE($GET(^names(%ydboctocursor(cursorId,"keys",1,"NAMES","ID"))),"|",2)_"|"_$PIECE($GET(^names(%ydboctocursor(cursorId,"keys",1,"NAMES","ID"))),"|",3)
    QUIT
;; This is a generated file; do not modify. Generated M code corresponds to below SQL query
;; ---------------------------------------------------------
;  select * from names where firstname not like "%%abc%%";
;; ---------------------------------------------------------

octoPlan0(cursorId)
    DO octoPlan1(cursorId)
    QUIT

octoPlan1(cursorId)
    NEW %ydboctoz KILL %ydboctocursor(cursorId,"keys",3,"","")
    SET %ydboctocursor(cursorId,"keys",1,"NAMES","ID")=""
    FOR  SET %ydboctocursor(cursorId,"keys",1,"NAMES","ID")=$ORDER(^names(%ydboctocursor(cursorId,"keys",1,"NAMES","ID"))) QUIT:(%ydboctocursor(cursorId,"keys",1,"NAMES","ID")="")  DO
    . NEW %ydboctobool SET %ydboctobool=1
    . SET %ydboctobool='$$regmatch^%ydbposix($PIECE($GET(^names(%ydboctocursor(cursorId,"keys",1,"NAMES","ID"))),"|",2),$GET(%ydboctocursor(cursorId,"parameters",1)))
    . IF %ydboctobool DO
    . . SET:1&$INCREMENT(%ydboctocursor(cursorId,"keys",3,"","")) %ydboctoz=42
    . . SET %ydboctocursor(cursorId,"keys",3,"","",%ydboctocursor(cursorId,"keys",3,"",""))=%ydboctocursor(cursorId,"keys",1,"NAMES","ID")_"|"_$PIECE($GET(^names(%ydboctocursor(cursorId,"keys",1,"NAMES","ID"))),"|",2)_"|"_$PIECE($GET(^names(%ydboctocursor(cursorId,"keys",1,"NAMES","ID"))),"|",3)
    QUIT
